{
  "project_info": {
    "project_number": "579734121707",
    "project_id": "logonapp-eed41",
    "storage_bucket": "logonapp-eed41.appspot.com"
  },
  "client": [
    {
      "client_info": {
        "mobilesdk_app_id": "1:579734121707:android:255e8f106c2abe673ee2ae",
        "android_client_info": {
          "package_name": "com.logonapp"
        }
      },
      "oauth_client": [
        {
          "client_id": "579734121707-s6m2a10uien35p0npfud52hojqujvq86.apps.googleusercontent.com",
          "client_type": 1,
          "android_info": {
            "package_name": "com.logonapp",
            "certificate_hash": "5e8f16062ea3cd2c4a0d547876baa6f38cabf625"
          }
        },
        {
          "client_id": "579734121707-vpcbafq9isdcvenaf3np29n73sg5h12r.apps.googleusercontent.com",
          "client_type": 3
        }
      ],
      "api_key": [
        {
          "current_key": "AIzaSyBkk7LL2MhwGtgeFsNzadr6MSNDCUNKTfU"
        }
      ],
      "services": {
        "appinvite_service": {
          "other_platform_oauth_client": [
            {
              "client_id": "579734121707-vpcbafq9isdcvenaf3np29n73sg5h12r.apps.googleusercontent.com",
              "client_type": 3
            }
          ]
        }
      }
    }
  ],
  "configuration_version": "1"
}